{
    "CHECKLIST FOR SAFER DRUG USE": {},
    "COUGH AND COLD MEDICINES": {},
    "PREGNANCY": {},
    "INFORMATION ABOUT SUBSTANCES OF ABUSE": {},
    "MEDICAL CONDITIONS AND THEIR COMMONLY USED DRUGS": {},
    "DRUG CHARTS": {},
    "ADDITIONAL DRUG INTERACTIONS": {},
    "GLOSSARY": {}
}