{
    "A0-A80": "Drugs that begin with the letter A",
    "B81-B103": "Drugs that begin with the letter B",
    "C104-C141": "Drugs that begin with the letter C",
    "D142-D169": "Drugs that begin with the letter D",
    "E170-E184": "Drugs that begin with the letter E",
    "F185-F193": "Drugs that begin with the letter F",
    "G194-G202": "Drugs that begin with the letter G",
    "H203-H210": "Drugs that begin with the letter H",
    "I211-I223": "Drugs that begin with the letter I",
    "K224-K225": "Drugs that begin with the letter K",
    "L226-L244": "Drugs that begin with the letter L",
    "M245-M272": "Drugs that begin with the letter M",
    "N273-N289": "Drugs that begin with the letter N",
    "O290-O297": "Drugs that begin with the letter O",
    "P298-P332": "Drugs that begin with the letter P",
    "Q333-Q335": "Drugs that begin with the letter Q",
    "R336-R347": "Drugs that begin with the letter R",
    "S348-S363": "Drugs that begin with the letter S",
    "T364-T388": "Drugs that begin with the letter T",
    "U389-U389": "Drugs that begin with the letter U",
    "V390-V403": "Drugs that begin with the letter V",
    "X404-X404": "Drugs that begin with the letter X",
    "Z405-Z409": "Drugs that begin with the letter Z"
}