{
    "INFORMATION ABOUT SUBSTANCES OF ABUSE": {
        "titre_0": "Tobacco (nicotine)",
        "titre_1": "Alcohol",
        "titre_2": "Marijuana (cannabis, hashish)",
        "titre_3": "Amphetamines (including ecstasy)",
        "titre_4": "Anabolic Steroids",
        "titre_5": "Barbiturates",
        "titre_6": "Sedative-hypnotics (benzodiazepines, \u201cparty drugs\u201d that include gammahydroxybutyrate and rohypnol)",
        "titre_7": "Cocaine",
        "titre_8": "Crystal Methamphetamine",
        "titre_9": "Opiates (codeine, heroin, morphine, methadone, opium)",
        "titre_10": "Phencyclidine (PCP, angeldust)",
        "titre_11": "Psychedelic Drugs (LSD, mescaline)",
        "titre_12": "Volatile Substances (glue, solvents, nitrous oxide,other volatile compounds)"
    }
}